set arrow from 1,1.11 to 108,1.11 nohead lt 4 lw 10
set key below
set title "TMHMM posterior probabilities for a/d1aa2__.a.40.1.1"
set yrange [0:1.2]
set size 2., 1.4
#set xlabel "position"
set ylabel "probability"
set xrange [1:108]
# Make the ps plot
set term postscript eps color solid "Helvetica" 30
set output "./6064/a_d1aa2__.a.40.1.1.eps"
plot "./6064/a_d1aa2__.a.40.1.1.plp" using 1:4 title "transmembrane" with impulses lt 1 lw 2, \
"" using 1:3 title "inside" with line lt 3 lw 2, \
"" using 1:5 title "outside" with line lt 4 lw 2
exit
